{
  "project_info": {
    "project_number": "211209017245",
    "firebase_url": "https://dreammore-c6eef.firebaseio.com",
    "project_id": "dreammore-c6eef",
    "storage_bucket": "dreammore-c6eef.appspot.com"
  },
  "client": [
    {
      "client_info": {
        "mobilesdk_app_id": "1:211209017245:android:ee77acbb9b148724c08174",
        "android_client_info": {
          "package_name": "com.dreammore.dreammoreapp"
        }
      },
      "oauth_client": [
        {
          "client_id": "211209017245-k70tb23u6lajikb252b91h624kcorlp2.apps.googleusercontent.com",
          "client_type": 1,
          "android_info": {
            "package_name": "com.dreammore.dreammoreapp",
            "certificate_hash": "2d4d807a7143f42eda07c4f08388577fe4aadd44"
          }
        },
        {
          "client_id": "211209017245-mb8git77egmcl0kddi953ot2dcbjc15j.apps.googleusercontent.com",
          "client_type": 1,
          "android_info": {
            "package_name": "com.dreammore.dreammoreapp",
            "certificate_hash": "910c5bf49aa28c4b5cd43f049d33e0b31241dd02"
          }
        },
        {
          "client_id": "211209017245-vg13r4kljr7e3r5vuqp0r9m4sh3he2on.apps.googleusercontent.com",
          "client_type": 3
        }
      ],
      "api_key": [
        {
          "current_key": "AIzaSyDN2XdHrdIRQP9__jDRbeYvBM8XhnZhWrM"
        }
      ],
      "services": {
        "appinvite_service": {
          "other_platform_oauth_client": [
            {
              "client_id": "211209017245-vg13r4kljr7e3r5vuqp0r9m4sh3he2on.apps.googleusercontent.com",
              "client_type": 3
            },
            {
              "client_id": "211209017245-0erkdnm1rj90o39jg0bro5odsvmeigp8.apps.googleusercontent.com",
              "client_type": 2,
              "ios_info": {
                "bundle_id": "com.ios.Dreammore"
              }
            }
          ]
        }
      }
    }
  ],
  "configuration_version": "1"
}
